<?xml version="1.0" encoding="utf-8"?>
<!-- Generator: Adobe Illustrator 24.2.3, SVG Export Plug-In . SVG Version: 6.00 Build 0)  -->
<svg version="1.1" id="Layer_1" xmlns="http://www.w3.org/2000/svg" xmlns:xlink="http://www.w3.org/1999/xlink" x="0px" y="0px"
	 viewBox="0 0 284 209" enable-background="new 0 0 284 209" xml:space="preserve">
<g>
	<path d="M229.3,114.9l-4.8,3.7l0.7,6.1l5.6,2.4l4.8-3.7l-0.8-6.1L229.3,114.9z"/>
	<path d="M44.3,74.9L36.3,81l1.3,10l9.3,3.9l8.1-6.2l-1.3-10L44.3,74.9z"/>
	<path d="M79.1,59.4l-0.9-7l-7.5-3.1l-6.5,5l0.7,5.3L59,63.9l1.8,13.6l12.6,5.3l10.9-8.3l-1.8-13.5L79.1,59.4z"/>
	<path d="M225.7,56l6.3-16.8l-0.8-17l-0.8-9l-6.3-0.1l-5.6,8.5l-0.1-5.4l-4.1-2.4l-4.8,4l-3,15.6l3,19.8l-4.7,2.1
		c-0.3,0.1-1.2,0.5-2,1l-0.6-4.7l-22.8-9.6l-1.3,1l-0.5-4.4l-26.8-11.3l-7.7,5.8l-7.1-3l-8,6.1l-7.4-3.1l9-6.8l-2.1-16.4l-15.3-6.4
		l-13.1,10l1.7,13.3L91,34.2l1.2,9L89,45.6l3.5,27.1l25.2,10.5L131.1,73l0.1,0.8l7.4,3.1l1.6,12.4l21.8,9.1l3.3-2.5l9,4.6l-0.8,9.4
		l17.4,19.1v0.1l0.1,0.1l0.4,0.5l0.4-0.1l3.6,1.5l3.9-3l-0.6-4.9l-4.4-1.8l-0.3-0.3l-3.6-10.1l4.2-11.7l0.5-0.1l-0.1,0.1l1.2,9.6
		l8.2,3.5l0.5,4.2l7.6,3.2l6.6-5l-1-8.2l-5.6-2.3l-0.9-7.1l-2.7-1.1l3.1-0.7H229l8.4-5.6V68.3L225.7,56L225.7,56z"/>
</g>
<path d="M6.7,172.9v-0.5c0-13.1,5.6-19.7,16.7-19.7c2.3,0,4.5,0.4,6.3,1.1c1.9,0.7,3.4,1.6,4.5,2.6c1.1,1,2.1,2.3,3,3.9
	c0.8,1.6,1.4,3,1.8,4.1c0.4,1.1,0.6,2.5,0.8,4.1c0.2,1.5,0.3,2.5,0.3,2.9v1.7l-0.1,2.7H12.2c0.4,3.9,1.5,6.6,3.5,8.4
	c2,1.7,5,2.6,8.9,2.6c5.5,0,9.9-0.9,13.1-2.8v5.7c-3.7,1.8-8.1,2.7-13.4,2.7h-0.2c-2.2,0-4.3-0.3-6.2-0.8c-1.9-0.5-3.7-1.5-5.5-2.8
	c-1.8-1.3-3.2-3.3-4.2-6C7.3,179.9,6.7,176.6,6.7,172.9L6.7,172.9z M12.3,170.7h22.4c0-0.9-0.1-1.8-0.3-2.9
	c-0.2-1.1-0.6-2.4-1.3-4.1c-0.6-1.7-1.8-3.1-3.5-4.2s-3.7-1.7-6.2-1.7c-3.8,0-6.6,1-8.3,3C13.5,162.7,12.5,166,12.3,170.7
	L12.3,170.7z M49.4,205.7v-41c0-1,0.1-2.1,0.5-3.1c0.3-1.1,0.9-2.4,1.9-3.9s2.6-2.7,4.9-3.7s5.1-1.4,8.5-1.4c1.4,0,2.8,0.1,4.2,0.4
	c1.4,0.3,2.8,0.8,4.4,1.7c1.6,0.9,3,2,4.1,3.4c1.2,1.4,2.1,3.4,2.9,5.9c0.8,2.5,1.2,5.5,1.2,8.8c0,3.8-0.5,7-1.5,9.7
	c-1,2.7-2.4,4.6-4.2,6c-1.8,1.3-3.6,2.3-5.5,2.8c-1.9,0.5-3.9,0.8-6.2,0.8c-3.1,0-6.3-0.5-9.5-1.5v15.1L49.4,205.7L49.4,205.7
	L49.4,205.7z M54.9,185c2.9,1.3,6.1,1.9,9.5,1.9c4.2,0,7.2-1.1,9.1-3.3c1.9-2.2,2.8-5.8,2.8-10.8c0-3.2-0.4-5.9-1-8
	c-0.7-2.1-1.7-3.7-2.9-4.7s-2.4-1.6-3.5-1.9c-1.1-0.3-2.4-0.5-3.8-0.5c-6.8,0-10.2,2.3-10.2,6.8L54.9,185L54.9,185z M89.2,163.6
	c0-3.1,1.1-5.7,3.3-7.8c2.2-2.2,5.7-3.2,10.2-3.2c3.3,0,6.6,0.8,9.8,2.3v5.5c-2.9-1.8-6-2.6-9.2-2.6c-5.8,0-8.6,1.9-8.6,5.9
	c0,1.3,0.7,2.4,2.1,3.2c1.4,0.8,3.1,1.5,5.1,2c2,0.5,4,1.2,6,1.9c2,0.8,3.7,2,5.1,3.8c1.4,1.8,2.1,4.1,2.1,6.8
	c0,3.3-1.3,5.9-3.7,7.8c-2.5,1.9-5.9,2.8-10.3,2.8c-4.2,0-8.1-1-11.6-2.9v-5.8c3.7,2.3,7.5,3.4,11.3,3.4c5.8,0,8.7-1.8,8.7-5.3
	c0-1.9-0.7-3.4-2.1-4.5c-1.4-1.1-3.1-1.9-5.1-2.4c-2-0.5-4-1.1-6-1.8c-2-0.6-3.7-1.7-5.1-3.2C89.9,168.1,89.2,166.1,89.2,163.6
	L89.2,163.6z M122.2,179.7c0-1.7,0.3-3.3,1-4.6c0.6-1.4,1.4-2.5,2.3-3.3c0.9-0.9,2.1-1.6,3.5-2.2c1.4-0.6,2.7-1,3.8-1.3
	c1.1-0.3,2.4-0.5,3.9-0.6s2.6-0.2,3.2-0.3c0.6,0,1.4,0,2.3,0l6.2,0.4c0-3.5-0.9-5.9-2.8-7.5c-1.9-1.5-4.7-2.2-8.4-2.2
	c-4.1,0-7.9,0.6-11.2,1.8v-5.4c3.8-1.3,7.6-2,11.5-2c5.4,0,9.4,1.4,12.3,4.1c2.8,2.7,4.2,6.7,4.2,11.9V180c0,2.4-0.6,4.5-1.7,6.3
	c-1.2,1.7-2.6,3-4.4,3.8c-1.8,0.8-3.5,1.3-5,1.6c-1.5,0.3-3.1,0.4-4.6,0.4c-1.2,0-2.4-0.1-3.6-0.2s-2.6-0.5-4.2-1
	c-1.5-0.5-2.9-1.2-4.1-2.1c-1.2-0.8-2.1-2.1-3-3.6C122.6,183.6,122.2,181.8,122.2,179.7L122.2,179.7z M127.8,179.7
	c0,4.8,3.5,7.2,10.4,7.2h0.1c6.8,0,10.2-2.3,10.2-6.9v-7.3c-1.7-0.3-4-0.4-6.8-0.4C132.4,172.2,127.8,174.7,127.8,179.7z
	 M162.4,172.2c0-4,0.5-7.4,1.6-10.2c1.1-2.8,2.5-4.8,4.3-6.1c1.8-1.3,3.5-2.2,5.2-2.6c1.6-0.5,3.3-0.7,5.1-0.7c3.3,0,6,0.5,8.2,1.4
	s3.8,2.1,4.7,3.5c0.9,1.4,1.5,2.7,1.8,3.7c0.3,1,0.5,2.1,0.5,3.1v28.8c0,1.7-0.3,3.2-0.7,4.7c-0.5,1.4-1.3,2.8-2.4,4.2
	c-1.1,1.4-2.8,2.4-5.1,3.2c-2.3,0.8-5.1,1.2-8.4,1.2c-3.6,0-7.2-0.5-10.9-1.4v-5.2c3.3,0.9,6.7,1.4,10.3,1.4c2.4,0,4.5-0.2,6.2-0.6
	c1.7-0.4,2.8-1,3.6-1.9c0.8-0.8,1.3-1.6,1.5-2.4s0.4-1.8,0.4-2.9v-3.8c-2.9,0.9-5.9,1.4-9,1.4c-1.7,0-3.3-0.1-4.8-0.4
	c-1.5-0.3-3-0.9-4.5-1.7c-1.5-0.9-2.8-1.9-4-3.3c-1.1-1.3-2-3.1-2.7-5.4C162.7,177.8,162.4,175.2,162.4,172.2L162.4,172.2z
	 M167.9,172.2c0,2.9,0.3,5.2,0.9,7.1s1.5,3.2,2.7,4.1s2.4,1.5,3.6,1.8c1.2,0.3,2.6,0.4,4.2,0.4c3.1,0,6-0.6,9-1.8V164
	c0-4.3-3.2-6.4-9.6-6.4c-1.4,0-2.6,0.2-3.7,0.5c-1.1,0.3-2.2,0.9-3.3,1.9c-1.2,0.9-2.1,2.4-2.7,4.5
	C168.2,166.5,167.9,169.1,167.9,172.2L167.9,172.2z M203.5,182.3c-1.1-2.7-1.6-6-1.6-9.9s0.5-7.2,1.6-9.9c1.1-2.7,2.5-4.8,4.4-6.1
	c1.8-1.3,3.7-2.3,5.7-2.9c1.9-0.6,4-0.8,6.3-0.8c2.3,0,4.4,0.3,6.4,0.8c1.9,0.6,3.8,1.5,5.7,2.9c1.8,1.3,3.3,3.4,4.4,6.1
	c1.1,2.7,1.6,6,1.6,9.9s-0.5,7.2-1.6,9.9c-1.1,2.7-2.5,4.8-4.4,6.1c-1.8,1.3-3.7,2.3-5.7,2.9c-1.9,0.6-4.1,0.8-6.4,0.8
	s-4.4-0.3-6.3-0.8c-1.9-0.6-3.8-1.5-5.7-2.9C206,187,204.5,185,203.5,182.3z M210.4,161.1c-2,2.3-3,6.1-3,11.2s1,8.9,3,11.2
	c2,2.3,5.1,3.5,9.5,3.5c4.4,0,7.5-1.2,9.5-3.5c2-2.3,3-6,3-11.2s-1-8.9-3-11.2c-2-2.3-5.1-3.5-9.5-3.5
	C215.5,157.6,212.3,158.8,210.4,161.1L210.4,161.1z M246.6,191.5v-35.2c5-2.5,10.4-3.7,16.2-3.7c4.8,0,8.5,1.2,11.2,3.7
	s4,5.9,4,10.3v24.9h-5.5v-24.9c0-1.1-0.1-2-0.3-2.9c-0.2-0.8-0.6-1.7-1.3-2.7c-0.6-0.9-1.7-1.7-3.1-2.2s-3.3-0.8-5.5-0.8
	c-3.2,0-6.6,0.5-10,1.5v31.9H246.6L246.6,191.5z"/>
</svg>
